\relax 
\providecommand\hyper@newdestlabel[2]{}
\providecommand\HyperFirstAtBeginDocument{\AtBeginDocument}
\HyperFirstAtBeginDocument{\ifx\hyper@anchor\@undefined
\global\let\oldcontentsline\contentsline
\gdef\contentsline#1#2#3#4{\oldcontentsline{#1}{#2}{#3}}
\global\let\oldnewlabel\newlabel
\gdef\newlabel#1#2{\newlabelxx{#1}#2}
\gdef\newlabelxx#1#2#3#4#5#6{\oldnewlabel{#1}{{#2}{#3}}}
\AtEndDocument{\ifx\hyper@anchor\@undefined
\let\contentsline\oldcontentsline
\let\newlabel\oldnewlabel
\fi}
\fi}
\global\let\hyper@last\relax 
\gdef\HyperFirstAtBeginDocument#1{#1}
\providecommand\HyField@AuxAddToFields[1]{}
\providecommand\HyField@AuxAddToCoFields[2]{}
\@writefile{toc}{\beamer@endinputifotherversion {3.24pt}}
\@writefile{nav}{\beamer@endinputifotherversion {3.24pt}}
\@writefile{nav}{\headcommand {\slideentry {0}{0}{1}{1/1}{}{0}}}
\@writefile{nav}{\headcommand {\beamer@framepages {1}{1}}}
\@writefile{nav}{\headcommand {\slideentry {0}{0}{2}{2/2}{}{0}}}
\@writefile{nav}{\headcommand {\beamer@framepages {2}{2}}}
\@writefile{toc}{\beamer@sectionintoc {1}{Szyfrowanie}{3}{0}{1}}
\@writefile{nav}{\headcommand {\sectionentry {1}{Szyfrowanie}{3}{Szyfrowanie}{0}}}
\@writefile{nav}{\headcommand {\beamer@sectionpages {1}{2}}}
\@writefile{nav}{\headcommand {\beamer@subsectionpages {1}{2}}}
\@writefile{nav}{\headcommand {\slideentry {1}{0}{3}{3/3}{}{0}}}
\@writefile{nav}{\headcommand {\beamer@framepages {3}{3}}}
\@writefile{toc}{\beamer@subsectionintoc {1}{1}{Poj\IeC {\k e}cia podstawowe}{4}{0}{1}}
\@writefile{nav}{\headcommand {\beamer@subsectionentry {0}{1}{1}{4}{Poj\IeC {\k e}cia podstawowe}}\headcommand {\beamer@subsectionpages {3}{3}}}
\@writefile{nav}{\headcommand {\slideentry {1}{1}{1}{4/7}{Poj\IeC {\k e}cia podstawowe}{0}}}
\@writefile{nav}{\headcommand {\beamer@framepages {4}{7}}}
\@writefile{toc}{\beamer@subsectionintoc {1}{2}{Szyfry klasyczne}{8}{0}{1}}
\@writefile{nav}{\headcommand {\beamer@subsectionentry {0}{1}{2}{8}{Szyfry klasyczne}}\headcommand {\beamer@subsectionpages {4}{7}}}
\@writefile{nav}{\headcommand {\slideentry {1}{2}{1}{8/11}{Szyfry klasyczne}{0}}}
\@writefile{nav}{\headcommand {\beamer@framepages {8}{11}}}
\@writefile{toc}{\beamer@subsectionintoc {1}{3}{Szyfrowanie symetryczne i asymetryczne}{12}{0}{1}}
\@writefile{nav}{\headcommand {\beamer@subsectionentry {0}{1}{3}{12}{Szyfrowanie symetryczne i asymetryczne}}\headcommand {\beamer@subsectionpages {8}{11}}}
\@writefile{nav}{\headcommand {\slideentry {1}{3}{1}{12/12}{Szyfrowanie symetryczne i asymetryczne}{0}}}
\@writefile{nav}{\headcommand {\beamer@framepages {12}{12}}}
\@writefile{nav}{\headcommand {\slideentry {1}{3}{2}{13/15}{Szyfrowanie symetryczne i asymetryczne}{0}}}
\@writefile{nav}{\headcommand {\beamer@framepages {13}{15}}}
\@writefile{toc}{\beamer@subsectionintoc {1}{4}{Przyk\IeC {\l }ady obecnie stosowanych algorytm\IeC {\'o}w szyfrowania}{16}{0}{1}}
\@writefile{nav}{\headcommand {\beamer@subsectionentry {0}{1}{4}{16}{Przyk\IeC {\l }ady obecnie stosowanych algorytm\IeC {\'o}w szyfrowania}}\headcommand {\beamer@subsectionpages {12}{15}}}
\@writefile{nav}{\headcommand {\slideentry {1}{4}{1}{16/16}{Przyk\IeC {\l }ady obecnie stosowanych algorytm\IeC {\'o}w szyfrowania}{0}}}
\@writefile{nav}{\headcommand {\beamer@framepages {16}{16}}}
\@writefile{nav}{\headcommand {\slideentry {1}{4}{2}{17/17}{Przyk\IeC {\l }ady obecnie stosowanych algorytm\IeC {\'o}w szyfrowania}{0}}}
\@writefile{nav}{\headcommand {\beamer@framepages {17}{17}}}
\@writefile{nav}{\headcommand {\slideentry {1}{4}{3}{18/18}{Przyk\IeC {\l }ady obecnie stosowanych algorytm\IeC {\'o}w szyfrowania}{0}}}
\@writefile{nav}{\headcommand {\beamer@framepages {18}{18}}}
\@writefile{nav}{\headcommand {\slideentry {1}{4}{4}{19/19}{Przyk\IeC {\l }ady obecnie stosowanych algorytm\IeC {\'o}w szyfrowania}{0}}}
\@writefile{nav}{\headcommand {\beamer@framepages {19}{19}}}
\@writefile{nav}{\headcommand {\slideentry {1}{4}{5}{20/20}{Przyk\IeC {\l }ady obecnie stosowanych algorytm\IeC {\'o}w szyfrowania}{0}}}
\@writefile{nav}{\headcommand {\beamer@framepages {20}{20}}}
\@writefile{nav}{\headcommand {\slideentry {1}{4}{6}{21/21}{Przyk\IeC {\l }ady obecnie stosowanych algorytm\IeC {\'o}w szyfrowania}{0}}}
\@writefile{nav}{\headcommand {\beamer@framepages {21}{21}}}
\@writefile{nav}{\headcommand {\slideentry {1}{4}{7}{22/22}{Przyk\IeC {\l }ady obecnie stosowanych algorytm\IeC {\'o}w szyfrowania}{0}}}
\@writefile{nav}{\headcommand {\beamer@framepages {22}{22}}}
\@writefile{toc}{\beamer@subsectionintoc {1}{5}{Przyk\IeC {\l }adowe zastosowania kryptografii}{23}{0}{1}}
\@writefile{nav}{\headcommand {\beamer@subsectionentry {0}{1}{5}{23}{Przyk\IeC {\l }adowe zastosowania kryptografii}}\headcommand {\beamer@subsectionpages {16}{22}}}
\@writefile{nav}{\headcommand {\slideentry {1}{5}{1}{23/23}{Przyk\IeC {\l }adowe zastosowania kryptografii}{0}}}
\@writefile{nav}{\headcommand {\beamer@framepages {23}{23}}}
\@writefile{nav}{\headcommand {\slideentry {1}{5}{2}{24/24}{Przyk\IeC {\l }adowe zastosowania kryptografii}{0}}}
\@writefile{nav}{\headcommand {\beamer@framepages {24}{24}}}
\@writefile{nav}{\headcommand {\slideentry {1}{5}{3}{25/25}{Przyk\IeC {\l }adowe zastosowania kryptografii}{0}}}
\@writefile{nav}{\headcommand {\beamer@framepages {25}{25}}}
\@writefile{toc}{\beamer@sectionintoc {2}{Dystrybucja Kluczy}{26}{0}{2}}
\@writefile{nav}{\headcommand {\sectionentry {2}{Dystrybucja Kluczy}{26}{Dystrybucja Kluczy}{0}}}
\@writefile{nav}{\headcommand {\beamer@sectionpages {3}{25}}}
\@writefile{nav}{\headcommand {\beamer@subsectionpages {23}{25}}}
\@writefile{nav}{\headcommand {\slideentry {2}{0}{4}{26/26}{}{0}}}
\@writefile{nav}{\headcommand {\beamer@framepages {26}{26}}}
\@writefile{toc}{\beamer@subsectionintoc {2}{1}{Certyfikaty}{27}{0}{2}}
\@writefile{nav}{\headcommand {\beamer@subsectionentry {0}{2}{1}{27}{Certyfikaty}}\headcommand {\beamer@subsectionpages {26}{26}}}
\@writefile{nav}{\headcommand {\slideentry {2}{1}{1}{27/29}{Certyfikaty}{0}}}
\@writefile{nav}{\headcommand {\beamer@framepages {27}{29}}}
\@writefile{toc}{\beamer@subsectionintoc {2}{2}{PKI}{30}{0}{2}}
\@writefile{nav}{\headcommand {\beamer@subsectionentry {0}{2}{2}{30}{PKI}}\headcommand {\beamer@subsectionpages {27}{29}}}
\@writefile{nav}{\headcommand {\slideentry {2}{2}{1}{30/31}{PKI}{0}}}
\@writefile{nav}{\headcommand {\beamer@framepages {30}{31}}}
\@writefile{nav}{\headcommand {\slideentry {2}{2}{2}{32/32}{PKI}{0}}}
\@writefile{nav}{\headcommand {\beamer@framepages {32}{32}}}
\@writefile{nav}{\headcommand {\beamer@partpages {1}{32}}}
\@writefile{nav}{\headcommand {\beamer@subsectionpages {30}{32}}}
\@writefile{nav}{\headcommand {\beamer@sectionpages {26}{32}}}
\@writefile{nav}{\headcommand {\beamer@documentpages {32}}}
\@writefile{nav}{\headcommand {\def \inserttotalframenumber {21}}}
